digraph "SkelettFlaeche3D::berechneBetaRu_BetaZu"
{
  bgcolor="transparent";
  edge [fontname="Helvetica",fontsize="10",labelfontname="Helvetica",labelfontsize="10"];
  node [fontname="Helvetica",fontsize="10",shape=record];
  rankdir="LR";
  Node1 [label="SkelettFlaeche3D::berechne\lBetaRu_BetaZu",height=0.2,width=0.4,color="black", fillcolor="grey75", style="filled" fontcolor="black"];
  Node1 -> Node2 [color="midnightblue",fontsize="10",style="solid"];
  Node2 [label="SkelettFlaeche3D::winkel",height=0.2,width=0.4,color="black",URL="$classSkelettFlaeche3D.html#a7922625c917fa2f4ba181aed6318eb35",tooltip="Winkel zwischen zwei Vektoren. "];
}
