digraph "druck::setze_p_tot_abs"
{
  bgcolor="transparent";
  edge [fontname="Helvetica",fontsize="10",labelfontname="Helvetica",labelfontsize="10"];
  node [fontname="Helvetica",fontsize="10",shape=record];
  rankdir="LR";
  Node1 [label="druck::setze_p_tot_abs",height=0.2,width=0.4,color="black", fillcolor="grey75", style="filled" fontcolor="black"];
  Node1 -> Node2 [color="midnightblue",fontsize="10",style="solid"];
  Node2 [label="druck::berechne_p_tot_abs",height=0.2,width=0.4,color="black",URL="$classdruck.html#a0a319889140871b4b470b7cadc9b26a8",tooltip="Berechnung des absoluten Totaldrucks. "];
  Node2 -> Node3 [color="midnightblue",fontsize="10",style="solid"];
  Node3 [label="geschwindigkeit::berechne_c",height=0.2,width=0.4,color="black",URL="$classgeschwindigkeit.html#aabf59ef67be6a88b0aadd7bd2190aebd",tooltip="Berechnung der Absolutgeschwindigkeit. "];
}
