digraph "stromlinie::anpassenStromlinienlage"
{
  bgcolor="transparent";
  edge [fontname="Helvetica",fontsize="10",labelfontname="Helvetica",labelfontsize="10"];
  node [fontname="Helvetica",fontsize="10",shape=record];
  rankdir="LR";
  Node1 [label="stromlinie::anpassenStromlinienlage",height=0.2,width=0.4,color="black", fillcolor="grey75", style="filled" fontcolor="black"];
  Node1 -> Node2 [color="midnightblue",fontsize="10",style="solid"];
  Node2 [label="massenStrom::berechneMassen\lStromRoehre_sinPsi",height=0.2,width=0.4,color="black",URL="$classmassenStrom.html#afbbeaa08af7d24fed06afdc2cdd8cf15",tooltip="Berechnung des Massenstromes zwischen zwei Stromlinien. "];
  Node1 -> Node3 [color="midnightblue",fontsize="10",style="solid"];
  Node3 [label="newton::newtonVerfahren",height=0.2,width=0.4,color="black",URL="$classnewton.html#acc18d7e3d6eaa07ad6fb00d52f6bc571",tooltip="Bisektionsverfahren für Verschiebung der Stromlinien. "];
}
