digraph "geometrie::bekomme_my"
{
  bgcolor="transparent";
  edge [fontname="Helvetica",fontsize="10",labelfontname="Helvetica",labelfontsize="10"];
  node [fontname="Helvetica",fontsize="10",shape=record];
  rankdir="LR";
  Node1 [label="geometrie::bekomme_my",height=0.2,width=0.4,color="black", fillcolor="grey75", style="filled" fontcolor="black"];
  Node1 -> Node2 [color="midnightblue",fontsize="10",style="solid"];
  Node2 [label="geometrie::bekomme_myG",height=0.2,width=0.4,color="black",URL="$classgeometrie.html#a9f37b6bea87597c6f897e17fbed63441",tooltip="Bestimmung der Laufvariable  entlang einer Stromlinie (2) "];
}
