digraph "geschwindigkeit_denton::aktualisiere_nurbsGeschwindigkeitskurven"
{
  bgcolor="transparent";
  edge [fontname="Helvetica",fontsize="10",labelfontname="Helvetica",labelfontsize="10"];
  node [fontname="Helvetica",fontsize="10",shape=record];
  rankdir="LR";
  Node1 [label="geschwindigkeit_denton\l::aktualisiere_nurbsGeschwindigkeitskurven",height=0.2,width=0.4,color="black", fillcolor="grey75", style="filled" fontcolor="black"];
  Node1 -> Node2 [color="midnightblue",fontsize="10",style="solid"];
  Node2 [label="geschwindigkeit_denton\l::aktualisiere_nurbsDrallSL",height=0.2,width=0.4,color="black",URL="$classgeschwindigkeit__denton.html#ad9674184dd6d35ad31843396b23d6006",tooltip="Bestimmung einer Nurbskurve mit den Werten des Dralls entlang einer Stromlinie. "];
  Node1 -> Node3 [color="midnightblue",fontsize="10",style="solid"];
  Node3 [label="geschwindigkeit_denton\l::aktualisiere_nurbsQuadratDrallQO",height=0.2,width=0.4,color="black",URL="$classgeschwindigkeit__denton.html#af2d66c5b56720dae13b8aa6c940fc175",tooltip="Bestimmung einer Nurbskurve mit den Quadrat des Dralls entlang einer Quasiorhogonalen. "];
  Node1 -> Node4 [color="midnightblue",fontsize="10",style="solid"];
  Node4 [label="geschwindigkeit_denton\l::aktualisiere_nurbsQuadratDrallSL",height=0.2,width=0.4,color="black",URL="$classgeschwindigkeit__denton.html#afa62101b5adb07229c93185d7703e5be",tooltip="Bestimmung einer Nurbskurve mit den Quadrat des Dralls entlang einer Stromlinie. "];
  Node1 -> Node5 [color="midnightblue",fontsize="10",style="solid"];
  Node5 [label="geschwindigkeit_denton\l::aktualisiere_nurbsWmSL",height=0.2,width=0.4,color="black",URL="$classgeschwindigkeit__denton.html#ae95380ba83408790e8093ef879ed2890",tooltip="Bestimmung einer Nurbskurve mit den Werten der Meridiangeschwindigkeit entlang einer Stromlinie..."];
}
