digraph "ausgabe::ausgabe"
{
  bgcolor="transparent";
  edge [fontname="Helvetica",fontsize="10",labelfontname="Helvetica",labelfontsize="10"];
  node [fontname="Helvetica",fontsize="10",shape=record];
  rankdir="LR";
  Node1 [label="ausgabe::ausgabe",height=0.2,width=0.4,color="black", fillcolor="grey75", style="filled" fontcolor="black"];
  Node1 -> Node2 [color="midnightblue",fontsize="10",style="solid"];
  Node2 [label="daten::getInstance",height=0.2,width=0.4,color="black",URL="$classdaten.html#af1ce6e918828922550eb8808122e3153",tooltip="Singleton-Zugriffsfunktion. "];
}
