<?xml version="1.0" encoding="UTF-8" standalone="no"?>
<!-- Created with Inkscape (http://www.inkscape.org/) -->

<svg
   xmlns:ns0="http://www.iki.fi/pav/software/textext/"
   xmlns:dc="http://purl.org/dc/elements/1.1/"
   xmlns:cc="http://creativecommons.org/ns#"
   xmlns:rdf="http://www.w3.org/1999/02/22-rdf-syntax-ns#"
   xmlns:svg="http://www.w3.org/2000/svg"
   xmlns="http://www.w3.org/2000/svg"
   xmlns:xlink="http://www.w3.org/1999/xlink"
   xmlns:sodipodi="http://sodipodi.sourceforge.net/DTD/sodipodi-0.dtd"
   xmlns:inkscape="http://www.inkscape.org/namespaces/inkscape"
   width="210mm"
   height="297mm"
   id="svg2"
   version="1.1"
   inkscape:version="0.47 r22583"
   sodipodi:docname="diagramme_1.svg"
   inkscape:export-filename="/home/balassab/SKV/svn/skv/trunk/doc/LaTeX/bilder_pdf/diagramme_1.png"
   inkscape:export-xdpi="170"
   inkscape:export-ydpi="170">
  <sodipodi:namedview
     id="base"
     pagecolor="#ffffff"
     bordercolor="#666666"
     borderopacity="1.0"
     inkscape:pageopacity="0.0"
     inkscape:pageshadow="2"
     inkscape:zoom="0.7"
     inkscape:cx="522.3099"
     inkscape:cy="673.7288"
     inkscape:document-units="px"
     inkscape:current-layer="layer1"
     showgrid="false"
     inkscape:window-width="1280"
     inkscape:window-height="974"
     inkscape:window-x="-4"
     inkscape:window-y="-3"
     inkscape:window-maximized="1"
     inkscape:snap-grids="true">
    <inkscape:grid
       type="xygrid"
       id="grid2832" />
  </sodipodi:namedview>
  <defs
     id="defs4">
    <marker
       inkscape:stockid="Arrow2Mstart"
       orient="auto"
       refY="0.0"
       refX="0.0"
       id="Arrow2Mstart"
       style="overflow:visible">
      <path
         id="path3635"
         style="font-size:12.0;fill-rule:evenodd;stroke-width:0.62500000;stroke-linejoin:round"
         d="M 8.7185878,4.0337352 L -2.2072895,0.016013256 L 8.7185884,-4.0017078 C 6.9730900,-1.6296469 6.9831476,1.6157441 8.7185878,4.0337352 z "
         transform="scale(0.6) translate(0,0)" />
    </marker>
    <marker
       inkscape:stockid="Arrow2Lstart"
       orient="auto"
       refY="0.0"
       refX="0.0"
       id="Arrow2Lstart"
       style="overflow:visible">
      <path
         id="path3629"
         style="font-size:12.0;fill-rule:evenodd;stroke-width:0.62500000;stroke-linejoin:round"
         d="M 8.7185878,4.0337352 L -2.2072895,0.016013256 L 8.7185884,-4.0017078 C 6.9730900,-1.6296469 6.9831476,1.6157441 8.7185878,4.0337352 z "
         transform="scale(1.1) translate(1,0)" />
    </marker>
    <marker
       inkscape:stockid="Arrow1Lstart"
       orient="auto"
       refY="0.0"
       refX="0.0"
       id="Arrow1Lstart"
       style="overflow:visible">
      <path
         id="path3611"
         d="M 0.0,0.0 L 5.0,-5.0 L -12.5,0.0 L 5.0,5.0 L 0.0,0.0 z "
         style="fill-rule:evenodd;stroke:#000000;stroke-width:1.0pt;marker-start:none"
         transform="scale(0.8) translate(12.5,0)" />
    </marker>
    <inkscape:perspective
       sodipodi:type="inkscape:persp3d"
       inkscape:vp_x="0 : 526.18109 : 1"
       inkscape:vp_y="0 : 1000 : 0"
       inkscape:vp_z="744.09448 : 526.18109 : 1"
       inkscape:persp3d-origin="372.04724 : 350.78739 : 1"
       id="perspective10" />
    <inkscape:perspective
       id="perspective2824"
       inkscape:persp3d-origin="0.5 : 0.33333333 : 1"
       inkscape:vp_z="1 : 0.5 : 1"
       inkscape:vp_y="0 : 1000 : 0"
       inkscape:vp_x="0 : 0.5 : 1"
       sodipodi:type="inkscape:persp3d" />
    <inkscape:perspective
       id="perspective4442"
       inkscape:persp3d-origin="0.5 : 0.33333333 : 1"
       inkscape:vp_z="1 : 0.5 : 1"
       inkscape:vp_y="0 : 1000 : 0"
       inkscape:vp_x="0 : 0.5 : 1"
       sodipodi:type="inkscape:persp3d" />
    <marker
       inkscape:stockid="Arrow2Mstart"
       orient="auto"
       refY="0"
       refX="0"
       id="Arrow2Mstart-9"
       style="overflow:visible">
      <path
         id="path3635-3"
         style="font-size:12px;fill-rule:evenodd;stroke-width:0.625;stroke-linejoin:round"
         d="M 8.7185878,4.0337352 -2.2072895,0.01601326 8.7185884,-4.0017078 c -1.7454984,2.3720609 -1.7354408,5.6174519 -6e-7,8.035443 z"
         transform="scale(0.6,0.6)" />
    </marker>
    <inkscape:perspective
       id="perspective4472"
       inkscape:persp3d-origin="0.5 : 0.33333333 : 1"
       inkscape:vp_z="1 : 0.5 : 1"
       inkscape:vp_y="0 : 1000 : 0"
       inkscape:vp_x="0 : 0.5 : 1"
       sodipodi:type="inkscape:persp3d" />
    <inkscape:perspective
       id="perspective4498"
       inkscape:persp3d-origin="0.5 : 0.33333333 : 1"
       inkscape:vp_z="1 : 0.5 : 1"
       inkscape:vp_y="0 : 1000 : 0"
       inkscape:vp_x="0 : 0.5 : 1"
       sodipodi:type="inkscape:persp3d" />
    <inkscape:perspective
       id="perspective4520"
       inkscape:persp3d-origin="0.5 : 0.33333333 : 1"
       inkscape:vp_z="1 : 0.5 : 1"
       inkscape:vp_y="0 : 1000 : 0"
       inkscape:vp_x="0 : 0.5 : 1"
       sodipodi:type="inkscape:persp3d" />
    <inkscape:perspective
       sodipodi:type="inkscape:persp3d"
       inkscape:vp_x="0 : 0.5 : 1"
       inkscape:vp_y="0 : 1000 : 0"
       inkscape:vp_z="1 : 0.5 : 1"
       inkscape:persp3d-origin="0.5 : 0.33333333 : 1"
       id="perspective5629" />
  </defs>
  <metadata
     id="metadata7">
    <rdf:RDF>
      <cc:Work
         rdf:about="">
        <dc:format>image/svg+xml</dc:format>
        <dc:type
           rdf:resource="http://purl.org/dc/dcmitype/StillImage" />
        <dc:title></dc:title>
      </cc:Work>
    </rdf:RDF>
  </metadata>
  <g
     inkscape:label="Ebene 1"
     inkscape:groupmode="layer"
     id="layer1">
    <path
       style="fill:none;stroke:#000000;stroke-width:4.31915426;stroke-linecap:butt;stroke-linejoin:miter;stroke-miterlimit:4;stroke-opacity:1;stroke-dasharray:none;marker-start:url(#Arrow2Mstart)"
       d="m 79.951878,98.971714 0,734.256226"
       id="path2834"
       sodipodi:nodetypes="cc" />
    <path
       style="fill:none;stroke:#000000;stroke-width:4.31915426;stroke-linecap:butt;stroke-linejoin:miter;stroke-miterlimit:4;stroke-opacity:1;stroke-dasharray:none;marker-start:url(#Arrow2Mstart)"
       d="m 778.21515,451.70264 -698.263272,0"
       id="path2834-1"
       sodipodi:nodetypes="cc" />
    <path
       style="fill:none;stroke:#000000;stroke-width:4.31915426;stroke-linecap:butt;stroke-linejoin:miter;stroke-miterlimit:4;stroke-opacity:1;stroke-dasharray:none"
       d="m 51.157511,134.96466 c 28.794367,0 28.794367,0 28.794367,0"
       id="path4462" />
    <path
       style="fill:none;stroke:#000000;stroke-width:4.31915426;stroke-linecap:butt;stroke-linejoin:miter;stroke-miterlimit:4;stroke-opacity:1;stroke-dasharray:none"
       d="m 713.42784,451.70264 c 0,28.79437 0,28.79437 0,28.79437"
       id="path4462-9" />
    <path
       style="fill:none;stroke:#0000ff;stroke-width:4.31915426;stroke-linecap:butt;stroke-linejoin:miter;stroke-miterlimit:4;stroke-opacity:1;stroke-dasharray:none"
       d="m 79.951878,134.96466 c 0,0 57.588712,323.93657 331.135152,323.93657 273.54644,0 302.34081,-323.93657 302.34081,-323.93657"
       id="path4488"
       sodipodi:nodetypes="csc" />
    <path
       style="fill:none;stroke:#ffab00;stroke-width:4.31915426;stroke-linecap:butt;stroke-linejoin:miter;stroke-miterlimit:4;stroke-opacity:1;stroke-dasharray:none"
       d="m 79.951878,134.96466 c 0,0 57.588712,381.5253 331.135152,381.5253 273.54644,0 302.34081,-381.5253 302.34081,-381.5253"
       id="path4488-4"
       sodipodi:nodetypes="csc" />
    <path
       style="fill:none;stroke:#ff0000;stroke-width:4.31915426;stroke-linecap:butt;stroke-linejoin:miter;stroke-miterlimit:4;stroke-opacity:1;stroke-dasharray:none"
       d="m 79.951878,134.96466 c 0,0 57.588712,640.67456 331.135152,640.67456 273.54644,0 302.34081,-640.67456 302.34081,-640.67456"
       id="path4488-4-7"
       sodipodi:nodetypes="csc" />
    <g
       ns0:text="$1 \\ \\frac{p}{p_{tot,abs}}$"
       ns0:preamble="/home/balassab/SKV/svn/skv/trunk/doc/LaTeX/bilder_quelle/preamble.tex"
       transform="matrix(3.4691107,0,0,3.4691107,-65.896143,51.762262)"
       id="g4863">
      <defs
         id="defs4865">
        <g
           id="g4867">
          <symbol
             style="overflow:visible"
             overflow="visible"
             id="textext-0fea27c0-0">
            <path
               style="stroke:none"
               d=""
               id="path4870" />
          </symbol>
          <symbol
             style="overflow:visible"
             overflow="visible"
             id="textext-0fea27c0-1">
            <path
               style="stroke:none"
               d="m 2.9375,-6.375 c 0,-0.25 0,-0.265625 -0.234375,-0.265625 C 2.078125,-6 1.203125,-6 0.890625,-6 l 0,0.3125 c 0.203125,0 0.78125,0 1.296875,-0.265625 l 0,5.171875 c 0,0.359375 -0.03125,0.46875 -0.921875,0.46875 l -0.3125,0 0,0.3125 c 0.34375,-0.03125 1.203125,-0.03125 1.609375,-0.03125 0.390625,0 1.265625,0 1.609375,0.03125 l 0,-0.3125 -0.3125,0 c -0.90625,0 -0.921875,-0.109375 -0.921875,-0.46875 l 0,-5.59375 z m 0,0"
               id="path4873" />
          </symbol>
          <symbol
             style="overflow:visible"
             overflow="visible"
             id="textext-0fea27c0-2">
            <path
               style="stroke:none"
               d=""
               id="path4876" />
          </symbol>
          <symbol
             style="overflow:visible"
             overflow="visible"
             id="textext-0fea27c0-3">
            <path
               style="stroke:none"
               d="m 0.515625,0.84375 c -0.046875,0.203125 -0.0625,0.25 -0.328125,0.25 -0.09375,0 -0.1875,0 -0.1875,0.15625 0,0.078125 0.0625,0.109375 0.09375,0.109375 0.171875,0 0.40625,-0.03125 0.59375,-0.03125 0.234375,0 0.5,0.03125 0.734375,0.03125 0.0625,0 0.140625,-0.03125 0.140625,-0.15625 0,-0.109375 -0.09375,-0.109375 -0.1875,-0.109375 -0.15625,0 -0.34375,0 -0.34375,-0.078125 0,-0.03125 0.0625,-0.21875 0.078125,-0.3125 0.09375,-0.375 0.1875,-0.75 0.265625,-1.046875 0.078125,0.140625 0.296875,0.40625 0.71875,0.40625 0.84375,0 1.78125,-0.9375 1.78125,-1.96875 0,-0.8125 -0.5625,-1.171875 -1.03125,-1.171875 -0.4375,0 -0.8125,0.296875 -1,0.5 -0.109375,-0.40625 -0.5,-0.5 -0.71875,-0.5 -0.265625,0 -0.4375,0.1875 -0.546875,0.375 -0.140625,0.234375 -0.25,0.65625 -0.25,0.703125 0,0.078125 0.09375,0.078125 0.125,0.078125 0.09375,0 0.09375,-0.015625 0.140625,-0.203125 0.109375,-0.40625 0.25,-0.75 0.515625,-0.75 0.1875,0 0.234375,0.15625 0.234375,0.34375 0,0.078125 -0.015625,0.15625 -0.03125,0.203125 L 0.515625,0.84375 z M 1.84375,-2.234375 C 2.25,-2.78125 2.59375,-2.875 2.8125,-2.875 c 0.28125,0 0.515625,0.203125 0.515625,0.671875 0,0.28125 -0.15625,1 -0.359375,1.40625 -0.1875,0.34375 -0.515625,0.671875 -0.875,0.671875 -0.5,0 -0.625,-0.53125 -0.625,-0.609375 0,-0.03125 0.015625,-0.078125 0.015625,-0.109375 L 1.84375,-2.234375 z m 0,0"
               id="path4879" />
          </symbol>
          <symbol
             style="overflow:visible"
             overflow="visible"
             id="textext-0fea27c0-4">
            <path
               style="stroke:none"
               d=""
               id="path4882" />
          </symbol>
          <symbol
             style="overflow:visible"
             overflow="visible"
             id="textext-0fea27c0-5">
            <path
               style="stroke:none"
               d="m 1.5625,-1.921875 0.59375,0 c 0.109375,0 0.109375,0 0.125,-0.03125 C 2.3125,-1.96875 2.328125,-2.03125 2.328125,-2.0625 c 0,-0.078125 -0.078125,-0.078125 -0.15625,-0.078125 l -0.546875,0 L 1.71875,-2.5625 C 1.75,-2.6875 1.8125,-2.921875 1.8125,-2.953125 1.8125,-3.03125 1.75,-3.125 1.625,-3.125 c -0.078125,0 -0.203125,0.0625 -0.234375,0.1875 -0.03125,0.09375 0.03125,-0.140625 -0.203125,0.796875 l -0.59375,0 c -0.09375,0 -0.171875,0 -0.171875,0.125 0,0.09375 0.0625,0.09375 0.15625,0.09375 l 0.546875,0 C 0.984375,-1.3125 0.984375,-1.3125 0.84375,-0.75 0.8125,-0.640625 0.765625,-0.484375 0.765625,-0.421875 c 0,0.28125 0.265625,0.484375 0.625,0.484375 0.59375,0 0.96875,-0.6875 0.96875,-0.78125 0,-0.0625 -0.09375,-0.0625 -0.109375,-0.0625 -0.078125,0 -0.09375,0.015625 -0.109375,0.078125 -0.171875,0.359375 -0.46875,0.59375 -0.734375,0.59375 -0.15625,0 -0.203125,-0.125 -0.203125,-0.265625 0,-0.078125 0,-0.09375 0.015625,-0.140625 l 0.34375,-1.40625 z m 0,0"
               id="path4885" />
          </symbol>
          <symbol
             style="overflow:visible"
             overflow="visible"
             id="textext-0fea27c0-6">
            <path
               style="stroke:none"
               d="m 3.15625,-1.296875 c 0,-0.5 -0.421875,-0.90625 -1.046875,-0.90625 -0.84375,0 -1.578125,0.671875 -1.578125,1.34375 0,0.515625 0.40625,0.921875 1.046875,0.921875 0.828125,0 1.578125,-0.6875 1.578125,-1.359375 z m -1.578125,1.1875 c -0.234375,0 -0.59375,-0.125 -0.59375,-0.59375 0,-0.140625 0.0625,-0.625 0.34375,-0.96875 0.1875,-0.21875 0.484375,-0.359375 0.765625,-0.359375 0.28125,0 0.59375,0.140625 0.59375,0.578125 0,0.140625 -0.0625,0.609375 -0.296875,0.921875 -0.234375,0.296875 -0.5625,0.421875 -0.8125,0.421875 z m 0,0"
               id="path4888" />
          </symbol>
          <symbol
             style="overflow:visible"
             overflow="visible"
             id="textext-0fea27c0-7">
            <path
               style="stroke:none"
               d="m 1.34375,-0.0625 c 0,0.46875 -0.25,0.75 -0.390625,0.859375 -0.046875,0.03125 -0.0625,0.046875 -0.0625,0.078125 0,0.03125 0.046875,0.09375 0.09375,0.09375 0.0625,0 0.53125,-0.390625 0.53125,-1.015625 0,-0.34375 -0.15625,-0.5625 -0.375,-0.5625 -0.1875,0 -0.296875,0.15625 -0.296875,0.3125 C 0.84375,-0.140625 0.953125,0 1.140625,0 1.21875,0 1.296875,-0.015625 1.34375,-0.0625 z m 0,0"
               id="path4891" />
          </symbol>
          <symbol
             style="overflow:visible"
             overflow="visible"
             id="textext-0fea27c0-8">
            <path
               style="stroke:none"
               d="m 2.875,-1.609375 c 0.03125,-0.109375 0.078125,-0.296875 0.078125,-0.3125 0,-0.09375 -0.0625,-0.1875 -0.1875,-0.1875 -0.078125,0 -0.203125,0.0625 -0.25,0.203125 -0.09375,-0.125 -0.28125,-0.296875 -0.59375,-0.296875 -0.703125,0 -1.40625,0.6875 -1.40625,1.390625 0,0.515625 0.375,0.875 0.875,0.875 0.40625,0 0.734375,-0.296875 0.796875,-0.359375 0.078125,0.25 0.359375,0.359375 0.578125,0.359375 0.203125,0 0.34375,-0.125 0.4375,-0.28125 0.140625,-0.203125 0.203125,-0.46875 0.203125,-0.5 0,-0.0625 -0.078125,-0.0625 -0.109375,-0.0625 -0.078125,0 -0.09375,0.03125 -0.109375,0.109375 -0.09375,0.359375 -0.21875,0.5625 -0.390625,0.5625 -0.140625,0 -0.203125,-0.109375 -0.203125,-0.265625 0,-0.078125 0.046875,-0.265625 0.078125,-0.40625 L 2.875,-1.609375 z M 2.21875,-0.65625 c -0.03125,0.0625 -0.03125,0.078125 -0.109375,0.171875 -0.1875,0.21875 -0.453125,0.375 -0.703125,0.375 -0.171875,0 -0.4375,-0.09375 -0.4375,-0.515625 0,-0.234375 0.125,-0.75 0.296875,-1.015625 0.1875,-0.265625 0.453125,-0.390625 0.65625,-0.390625 0.21875,0 0.4375,0.125 0.515625,0.4375 l -0.21875,0.9375 z m 0,0"
               id="path4894" />
          </symbol>
          <symbol
             style="overflow:visible"
             overflow="visible"
             id="textext-0fea27c0-9">
            <path
               style="stroke:none"
               d="M 1.5625,-3.265625 C 1.59375,-3.34375 1.59375,-3.34375 1.59375,-3.375 c 0,-0.078125 -0.078125,-0.078125 -0.15625,-0.078125 L 0.828125,-3.40625 c -0.09375,0 -0.09375,0 -0.125,0.03125 -0.015625,0.015625 -0.03125,0.078125 -0.03125,0.109375 0,0.078125 0.078125,0.078125 0.140625,0.078125 0.015625,0 0.09375,0 0.171875,0.015625 0.09375,0.015625 0.109375,0.03125 0.109375,0.0625 0,0.03125 -0.0625,0.234375 -0.09375,0.34375 L 0.59375,-1.09375 C 0.5625,-1 0.546875,-0.921875 0.546875,-0.8125 c 0,0.515625 0.375,0.875 0.859375,0.875 0.71875,0 1.40625,-0.703125 1.40625,-1.390625 0,-0.5 -0.359375,-0.875 -0.875,-0.875 -0.21875,0 -0.453125,0.078125 -0.703125,0.265625 L 1.5625,-3.265625 z m -0.15625,3.15625 c -0.203125,0 -0.453125,-0.140625 -0.453125,-0.53125 0,-0.171875 0.03125,-0.328125 0.078125,-0.5 0.015625,-0.0625 0.09375,-0.375 0.109375,-0.40625 C 1.15625,-1.59375 1.5,-2.03125 1.921875,-2.03125 c 0.21875,0 0.4375,0.125 0.4375,0.5 0,0.1875 -0.09375,0.65625 -0.25,0.953125 -0.171875,0.28125 -0.453125,0.46875 -0.703125,0.46875 z m 0,0"
               id="path4897" />
          </symbol>
          <symbol
             style="overflow:visible"
             overflow="visible"
             id="textext-0fea27c0-10">
            <path
               style="stroke:none"
               d="m 2.53125,-1.890625 c -0.171875,0.0625 -0.203125,0.203125 -0.203125,0.25 0,0.125 0.109375,0.1875 0.1875,0.1875 0.0625,0 0.265625,-0.046875 0.265625,-0.3125 0,-0.328125 -0.390625,-0.4375 -0.765625,-0.4375 -0.84375,0 -1,0.515625 -1,0.6875 0,0.1875 0.09375,0.296875 0.1875,0.359375 0.140625,0.09375 0.296875,0.125 0.5625,0.171875 0.3125,0.046875 0.65625,0.09375 0.65625,0.34375 0,0.015625 0,0.53125 -0.921875,0.53125 -0.1875,0 -0.5,-0.015625 -0.65625,-0.171875 0.1875,-0.046875 0.265625,-0.1875 0.265625,-0.3125 0,-0.140625 -0.109375,-0.203125 -0.21875,-0.203125 -0.171875,0 -0.3125,0.140625 -0.3125,0.359375 0,0.5 0.765625,0.5 0.921875,0.5 1.015625,0 1.1875,-0.59375 1.1875,-0.796875 C 2.6875,-1.1875 2.140625,-1.265625 1.890625,-1.3125 1.53125,-1.375 1.28125,-1.40625 1.28125,-1.609375 c 0,-0.015625 0,-0.421875 0.71875,-0.421875 0.140625,0 0.390625,0 0.53125,0.140625 z m 0,0"
               id="path4900" />
          </symbol>
        </g>
      </defs>
      <g
         id="textext-0fea27c0-11">
        <g
           style="fill:#000000;fill-opacity:1"
           id="g4903">
          <use
             height="1052.3622"
             width="744.09448"
             xlink:href="#textext-0fea27c0-1"
             x="223.43201"
             y="134.765"
             id="use4905" />
        </g>
        <g
           style="fill:#000000;fill-opacity:1"
           id="g4907">
          <use
             height="1052.3622"
             width="744.09448"
             xlink:href="#textext-0fea27c0-3"
             x="244.054"
             y="130.32001"
             id="use4909" />
        </g>
        <path
           style="fill:none;stroke:#000000;stroke-width:0.398;stroke-linecap:butt;stroke-linejoin:miter;stroke-miterlimit:10;stroke-opacity:1"
           d="m -3.125e-4,5.625e-4 26.3554685,0"
           transform="matrix(1,0,0,-1,232.93,132.274)"
           id="path4911" />
        <g
           style="fill:#000000;fill-opacity:1"
           id="g4913">
          <use
             height="1052.3622"
             width="744.09448"
             xlink:href="#textext-0fea27c0-3"
             x="232.92999"
             y="138.2"
             id="use4915" />
        </g>
        <g
           style="fill:#000000;fill-opacity:1"
           id="g4917">
          <use
             height="1052.3622"
             width="744.09448"
             xlink:href="#textext-0fea27c0-5"
             x="237.037"
             y="139.258"
             id="use4919" />
          <use
             height="1052.3622"
             width="744.09448"
             xlink:href="#textext-0fea27c0-6"
             x="239.84496"
             y="139.258"
             id="use4921" />
          <use
             height="1052.3622"
             width="744.09448"
             xlink:href="#textext-0fea27c0-5"
             x="243.34581"
             y="139.258"
             id="use4923" />
          <use
             height="1052.3622"
             width="744.09448"
             xlink:href="#textext-0fea27c0-7"
             x="246.15378"
             y="139.258"
             id="use4925" />
          <use
             height="1052.3622"
             width="744.09448"
             xlink:href="#textext-0fea27c0-8"
             x="248.43671"
             y="139.258"
             id="use4927" />
          <use
             height="1052.3622"
             width="744.09448"
             xlink:href="#textext-0fea27c0-9"
             x="252.29422"
             y="139.258"
             id="use4929" />
          <use
             height="1052.3622"
             width="744.09448"
             xlink:href="#textext-0fea27c0-10"
             x="255.44888"
             y="139.258"
             id="use4931" />
        </g>
      </g>
    </g>
    <g
       ns0:text="$\\frac{\\dot{m}_{Vorgabe}-\\dot{m}}{\\dot{m}_{Vorgabe}}$"
       ns0:preamble="/home/balassab/SKV/svn/skv/trunk/doc/LaTeX/bilder_quelle/preamble.tex"
       transform="matrix(3.4818663,0,0,3.4818663,-769.14788,-411.51108)"
       id="g5360">
      <defs
         id="defs5362">
        <g
           id="g5364">
          <symbol
             style="overflow:visible"
             overflow="visible"
             id="textext-c47c4078-0">
            <path
               style="stroke:none"
               d=""
               id="path5367" />
          </symbol>
          <symbol
             style="overflow:visible"
             overflow="visible"
             id="textext-c47c4078-1">
            <path
               style="stroke:none"
               d="m 1.515625,-4.296875 c 0,-0.21875 -0.171875,-0.40625 -0.390625,-0.40625 -0.234375,0 -0.40625,0.203125 -0.40625,0.40625 0,0.21875 0.1875,0.40625 0.40625,0.40625 0.234375,0 0.390625,-0.203125 0.390625,-0.40625 z m 0,0"
               id="path5370" />
          </symbol>
          <symbol
             style="overflow:visible"
             overflow="visible"
             id="textext-c47c4078-2">
            <path
               style="stroke:none"
               d=""
               id="path5373" />
          </symbol>
          <symbol
             style="overflow:visible"
             overflow="visible"
             id="textext-c47c4078-3">
            <path
               style="stroke:none"
               d="m 3.03125,-0.5625 c -0.046875,0.140625 -0.109375,0.375 -0.109375,0.40625 0,0.15625 0.125,0.21875 0.234375,0.21875 0.140625,0 0.25,-0.078125 0.28125,-0.140625 0.03125,-0.0625 0.09375,-0.296875 0.125,-0.4375 0.03125,-0.125 0.109375,-0.453125 0.15625,-0.625 0.03125,-0.15625 0.078125,-0.3125 0.109375,-0.46875 0.078125,-0.296875 0.078125,-0.3125 0.21875,-0.53125 C 4.265625,-2.484375 4.625,-2.875 5.15625,-2.875 c 0.390625,0 0.421875,0.3125 0.421875,0.484375 0,0.421875 -0.296875,1.1875 -0.421875,1.484375 -0.0625,0.203125 -0.09375,0.265625 -0.09375,0.375 0,0.375 0.296875,0.59375 0.65625,0.59375 0.703125,0 1,-0.953125 1,-1.0625 0,-0.09375 -0.078125,-0.09375 -0.109375,-0.09375 -0.09375,0 -0.09375,0.046875 -0.125,0.125 C 6.328125,-0.40625 6.015625,-0.125 5.75,-0.125 c -0.15625,0 -0.1875,-0.09375 -0.1875,-0.25 0,-0.15625 0.046875,-0.25 0.171875,-0.5625 0.078125,-0.21875 0.359375,-0.953125 0.359375,-1.34375 0,-0.109375 0,-0.40625 -0.25,-0.609375 -0.125,-0.078125 -0.328125,-0.1875 -0.65625,-0.1875 -0.625,0 -1,0.421875 -1.234375,0.703125 C 3.90625,-2.96875 3.40625,-3.078125 3.046875,-3.078125 2.46875,-3.078125 2.078125,-2.71875 1.875,-2.4375 1.828125,-2.921875 1.421875,-3.078125 1.125,-3.078125 c -0.296875,0 -0.453125,0.21875 -0.546875,0.375 -0.15625,0.265625 -0.25,0.65625 -0.25,0.703125 0,0.078125 0.09375,0.078125 0.125,0.078125 0.09375,0 0.09375,-0.015625 0.140625,-0.203125 0.109375,-0.40625 0.25,-0.75 0.515625,-0.75 0.1875,0 0.234375,0.15625 0.234375,0.34375 0,0.125 -0.0625,0.390625 -0.125,0.578125 -0.046875,0.1875 -0.109375,0.46875 -0.140625,0.625 L 0.84375,-0.4375 c -0.015625,0.09375 -0.0625,0.265625 -0.0625,0.28125 0,0.15625 0.125,0.21875 0.234375,0.21875 0.125,0 0.234375,-0.078125 0.28125,-0.140625 0.03125,-0.0625 0.078125,-0.296875 0.125,-0.4375 0.03125,-0.125 0.109375,-0.453125 0.140625,-0.625 0.046875,-0.15625 0.09375,-0.3125 0.125,-0.46875 0.078125,-0.28125 0.09375,-0.34375 0.296875,-0.625 C 2.171875,-2.515625 2.5,-2.875 3.03125,-2.875 c 0.390625,0 0.40625,0.359375 0.40625,0.484375 0,0.171875 -0.015625,0.265625 -0.125,0.65625 L 3.03125,-0.5625 z m 0,0"
               id="path5376" />
          </symbol>
          <symbol
             style="overflow:visible"
             overflow="visible"
             id="textext-c47c4078-4">
            <path
               style="stroke:none"
               d=""
               id="path5379" />
          </symbol>
          <symbol
             style="overflow:visible"
             overflow="visible"
             id="textext-c47c4078-5">
            <path
               style="stroke:none"
               d="m 4.1875,-2.78125 c 0.046875,-0.046875 0.046875,-0.0625 0.109375,-0.125 0.078125,-0.109375 0.234375,-0.25 0.546875,-0.28125 0.0625,0 0.140625,0 0.140625,-0.125 0,-0.03125 -0.015625,-0.09375 -0.078125,-0.09375 -0.078125,0 -0.15625,0.015625 -0.21875,0.015625 -0.078125,0 -0.15625,0 -0.234375,0 -0.09375,0 -0.1875,0 -0.28125,0 -0.078125,0 -0.1875,-0.015625 -0.28125,-0.015625 -0.078125,0 -0.125,0.0625 -0.125,0.140625 0,0.078125 0.09375,0.078125 0.125,0.078125 0.078125,0.015625 0.203125,0.03125 0.203125,0.125 0,0.046875 -0.015625,0.109375 -0.09375,0.203125 L 2.25,-0.46875 1.671875,-3 c 0,-0.0625 0,-0.0625 0,-0.078125 0,-0.078125 0.15625,-0.109375 0.328125,-0.109375 0.0625,0 0.140625,0 0.140625,-0.125 0,-0.046875 -0.015625,-0.09375 -0.078125,-0.09375 -0.109375,0 -0.234375,0.015625 -0.34375,0.015625 -0.109375,0 -0.234375,0 -0.34375,0 -0.109375,0 -0.21875,0 -0.328125,0 -0.09375,0 -0.203125,-0.015625 -0.296875,-0.015625 -0.03125,0 -0.109375,0 -0.109375,0.140625 0,0.078125 0.0625,0.078125 0.15625,0.078125 0.296875,0 0.296875,0.046875 0.328125,0.140625 l 0.671875,3.015625 c 0.03125,0.09375 0.046875,0.140625 0.171875,0.140625 0.0625,0 0.125,0 0.203125,-0.109375 L 4.1875,-2.78125 z m 0,0"
               id="path5382" />
          </symbol>
          <symbol
             style="overflow:visible"
             overflow="visible"
             id="textext-c47c4078-6">
            <path
               style="stroke:none"
               d="m 3.15625,-1.296875 c 0,-0.5 -0.421875,-0.90625 -1.046875,-0.90625 -0.84375,0 -1.578125,0.671875 -1.578125,1.34375 0,0.515625 0.40625,0.921875 1.046875,0.921875 0.828125,0 1.578125,-0.6875 1.578125,-1.359375 z m -1.578125,1.1875 c -0.234375,0 -0.59375,-0.125 -0.59375,-0.59375 0,-0.140625 0.0625,-0.625 0.34375,-0.96875 0.1875,-0.21875 0.484375,-0.359375 0.765625,-0.359375 0.28125,0 0.59375,0.140625 0.59375,0.578125 0,0.140625 -0.0625,0.609375 -0.296875,0.921875 -0.234375,0.296875 -0.5625,0.421875 -0.8125,0.421875 z m 0,0"
               id="path5385" />
          </symbol>
          <symbol
             style="overflow:visible"
             overflow="visible"
             id="textext-c47c4078-7">
            <path
               style="stroke:none"
               d="M 1.484375,-0.8125 C 1.5,-0.890625 1.546875,-1.078125 1.5625,-1.15625 1.578125,-1.234375 1.609375,-1.3125 1.625,-1.375 1.640625,-1.453125 1.796875,-1.71875 1.96875,-1.859375 2.140625,-2 2.296875,-2.03125 2.46875,-2.03125 c 0.0625,0 0.296875,0 0.46875,0.078125 -0.21875,0.078125 -0.21875,0.28125 -0.21875,0.296875 0,0.078125 0.0625,0.203125 0.21875,0.203125 0.140625,0 0.3125,-0.125 0.3125,-0.34375 0,-0.359375 -0.53125,-0.40625 -0.765625,-0.40625 -0.125,0 -0.453125,0 -0.796875,0.390625 -0.0625,-0.265625 -0.359375,-0.390625 -0.59375,-0.390625 -0.171875,0 -0.3125,0.078125 -0.453125,0.28125 -0.125,0.203125 -0.1875,0.46875 -0.1875,0.484375 0,0.078125 0.078125,0.078125 0.109375,0.078125 0.078125,0 0.078125,-0.015625 0.125,-0.140625 0.078125,-0.296875 0.1875,-0.53125 0.375,-0.53125 0.171875,0 0.203125,0.15625 0.203125,0.265625 0,0.0625 -0.046875,0.25 -0.078125,0.390625 -0.03125,0.125 -0.078125,0.328125 -0.109375,0.4375 L 0.96875,-0.484375 C 0.9375,-0.359375 0.875,-0.140625 0.875,-0.125 c 0,0.109375 0.09375,0.1875 0.1875,0.1875 0.078125,0 0.171875,-0.046875 0.21875,-0.140625 C 1.3125,-0.109375 1.34375,-0.28125 1.375,-0.375 l 0.109375,-0.4375 z m 0,0"
               id="path5388" />
          </symbol>
          <symbol
             style="overflow:visible"
             overflow="visible"
             id="textext-c47c4078-8">
            <path
               style="stroke:none"
               d="m 3.140625,-1.8125 c 0.03125,-0.09375 0.03125,-0.09375 0.03125,-0.109375 0,-0.09375 -0.078125,-0.1875 -0.1875,-0.1875 -0.109375,0 -0.21875,0.078125 -0.25,0.203125 C 2.5625,-2.125 2.359375,-2.203125 2.140625,-2.203125 1.453125,-2.203125 0.75,-1.5625 0.75,-0.859375 0.75,-0.328125 1.140625,0 1.625,0 1.9375,0 2.203125,-0.171875 2.328125,-0.265625 2.3125,-0.21875 2.21875,0.125 2.203125,0.203125 2.15625,0.390625 2.125,0.53125 1.890625,0.6875 1.65625,0.859375 1.4375,0.859375 1.296875,0.859375 1.25,0.859375 0.890625,0.84375 0.890625,0.8125 L 0.90625,0.796875 C 1,0.71875 1.03125,0.609375 1.03125,0.5625 1.03125,0.484375 0.96875,0.359375 0.796875,0.359375 0.640625,0.359375 0.5,0.5 0.5,0.6875 c 0,0.328125 0.5,0.328125 0.796875,0.328125 0.6875,0 1.203125,-0.21875 1.3125,-0.703125 l 0.53125,-2.125 z M 2.4375,-0.703125 c -0.03125,0.078125 -0.03125,0.09375 -0.125,0.1875 -0.1875,0.1875 -0.40625,0.34375 -0.671875,0.34375 -0.1875,0 -0.4375,-0.109375 -0.4375,-0.5 0,-0.1875 0.078125,-0.65625 0.265625,-0.953125 0.140625,-0.21875 0.40625,-0.40625 0.671875,-0.40625 0.40625,0 0.515625,0.390625 0.515625,0.4375 0,0 -0.015625,0.03125 -0.015625,0.0625 L 2.4375,-0.703125 z m 0,0"
               id="path5391" />
          </symbol>
          <symbol
             style="overflow:visible"
             overflow="visible"
             id="textext-c47c4078-9">
            <path
               style="stroke:none"
               d="m 2.875,-1.609375 c 0.03125,-0.109375 0.078125,-0.296875 0.078125,-0.3125 0,-0.09375 -0.0625,-0.1875 -0.1875,-0.1875 -0.078125,0 -0.203125,0.0625 -0.25,0.203125 -0.09375,-0.125 -0.28125,-0.296875 -0.59375,-0.296875 -0.703125,0 -1.40625,0.6875 -1.40625,1.390625 0,0.515625 0.375,0.875 0.875,0.875 0.40625,0 0.734375,-0.296875 0.796875,-0.359375 0.078125,0.25 0.359375,0.359375 0.578125,0.359375 0.203125,0 0.34375,-0.125 0.4375,-0.28125 0.140625,-0.203125 0.203125,-0.46875 0.203125,-0.5 0,-0.0625 -0.078125,-0.0625 -0.109375,-0.0625 -0.078125,0 -0.09375,0.03125 -0.109375,0.109375 -0.09375,0.359375 -0.21875,0.5625 -0.390625,0.5625 -0.140625,0 -0.203125,-0.109375 -0.203125,-0.265625 0,-0.078125 0.046875,-0.265625 0.078125,-0.40625 L 2.875,-1.609375 z M 2.21875,-0.65625 c -0.03125,0.0625 -0.03125,0.078125 -0.109375,0.171875 -0.1875,0.21875 -0.453125,0.375 -0.703125,0.375 -0.171875,0 -0.4375,-0.09375 -0.4375,-0.515625 0,-0.234375 0.125,-0.75 0.296875,-1.015625 0.1875,-0.265625 0.453125,-0.390625 0.65625,-0.390625 0.21875,0 0.4375,0.125 0.515625,0.4375 l -0.21875,0.9375 z m 0,0"
               id="path5394" />
          </symbol>
          <symbol
             style="overflow:visible"
             overflow="visible"
             id="textext-c47c4078-10">
            <path
               style="stroke:none"
               d="M 1.5625,-3.265625 C 1.59375,-3.34375 1.59375,-3.34375 1.59375,-3.375 c 0,-0.078125 -0.078125,-0.078125 -0.15625,-0.078125 L 0.828125,-3.40625 c -0.09375,0 -0.09375,0 -0.125,0.03125 -0.015625,0.015625 -0.03125,0.078125 -0.03125,0.109375 0,0.078125 0.078125,0.078125 0.140625,0.078125 0.015625,0 0.09375,0 0.171875,0.015625 0.09375,0.015625 0.109375,0.03125 0.109375,0.0625 0,0.03125 -0.0625,0.234375 -0.09375,0.34375 L 0.59375,-1.09375 C 0.5625,-1 0.546875,-0.921875 0.546875,-0.8125 c 0,0.515625 0.375,0.875 0.859375,0.875 0.71875,0 1.40625,-0.703125 1.40625,-1.390625 0,-0.5 -0.359375,-0.875 -0.875,-0.875 -0.21875,0 -0.453125,0.078125 -0.703125,0.265625 L 1.5625,-3.265625 z m -0.15625,3.15625 c -0.203125,0 -0.453125,-0.140625 -0.453125,-0.53125 0,-0.171875 0.03125,-0.328125 0.078125,-0.5 0.015625,-0.0625 0.09375,-0.375 0.109375,-0.40625 C 1.15625,-1.59375 1.5,-2.03125 1.921875,-2.03125 c 0.21875,0 0.4375,0.125 0.4375,0.5 0,0.1875 -0.09375,0.65625 -0.25,0.953125 -0.171875,0.28125 -0.453125,0.46875 -0.703125,0.46875 z m 0,0"
               id="path5397" />
          </symbol>
          <symbol
             style="overflow:visible"
             overflow="visible"
             id="textext-c47c4078-11">
            <path
               style="stroke:none"
               d="m 1.421875,-1.125 c 0.5,0 1.390625,-0.0625 1.390625,-0.625 0,-0.265625 -0.25,-0.453125 -0.71875,-0.453125 -0.671875,0 -1.53125,0.453125 -1.53125,1.28125 0,0.453125 0.296875,0.984375 1.046875,0.984375 0.09375,0 0.5,0 0.828125,-0.140625 0.328125,-0.125 0.53125,-0.359375 0.53125,-0.40625 0,-0.046875 -0.0625,-0.125 -0.109375,-0.125 -0.015625,0 -0.03125,0.015625 -0.109375,0.09375 -0.25,0.265625 -0.6875,0.40625 -1.140625,0.40625 -0.40625,0 -0.59375,-0.265625 -0.59375,-0.640625 0,-0.046875 0,-0.171875 0.046875,-0.375 l 0.359375,0 z m -0.3125,-0.171875 c 0.21875,-0.6875 0.828125,-0.734375 0.984375,-0.734375 0.25,0 0.46875,0.09375 0.46875,0.28125 0,0.453125 -0.9375,0.453125 -1.171875,0.453125 l -0.28125,0 z m 0,0"
               id="path5400" />
          </symbol>
          <symbol
             style="overflow:visible"
             overflow="visible"
             id="textext-c47c4078-12">
            <path
               style="stroke:none"
               d=""
               id="path5403" />
          </symbol>
          <symbol
             style="overflow:visible"
             overflow="visible"
             id="textext-c47c4078-13">
            <path
               style="stroke:none"
               d="m 5.203125,-1.578125 c 0.09375,0 0.265625,0 0.265625,-0.15625 0,-0.1875 -0.171875,-0.1875 -0.265625,-0.1875 l -4.1875,0 c -0.109375,0 -0.265625,0 -0.265625,0.1875 0,0.15625 0.171875,0.15625 0.265625,0.15625 l 4.1875,0 z m 0,0"
               id="path5406" />
          </symbol>
        </g>
      </defs>
      <g
         id="textext-c47c4078-14">
        <g
           style="fill:#000000;fill-opacity:1"
           id="g5409">
          <use
             height="1052.3622"
             width="744.09448"
             xlink:href="#textext-c47c4078-1"
             x="227.035"
             y="129.651"
             id="use5411" />
        </g>
        <g
           style="fill:#000000;fill-opacity:1"
           id="g5413">
          <use
             height="1052.3622"
             width="744.09448"
             xlink:href="#textext-c47c4078-3"
             x="224.62801"
             y="129.651"
             id="use5415" />
        </g>
        <g
           style="fill:#000000;fill-opacity:1"
           id="g5417">
          <use
             height="1052.3622"
             width="744.09448"
             xlink:href="#textext-c47c4078-5"
             x="231.69701"
             y="130.70799"
             id="use5419" />
        </g>
        <g
           style="fill:#000000;fill-opacity:1"
           id="g5421">
          <use
             height="1052.3622"
             width="744.09448"
             xlink:href="#textext-c47c4078-6"
             x="237.20532"
             y="130.70799"
             id="use5423" />
          <use
             height="1052.3622"
             width="744.09448"
             xlink:href="#textext-c47c4078-7"
             x="240.70618"
             y="130.70799"
             id="use5425" />
        </g>
        <g
           style="fill:#000000;fill-opacity:1"
           id="g5427">
          <use
             height="1052.3622"
             width="744.09448"
             xlink:href="#textext-c47c4078-8"
             x="244.22447"
             y="130.70799"
             id="use5429" />
        </g>
        <g
           style="fill:#000000;fill-opacity:1"
           id="g5431">
          <use
             height="1052.3622"
             width="744.09448"
             xlink:href="#textext-c47c4078-9"
             x="247.88872"
             y="130.70799"
             id="use5433" />
          <use
             height="1052.3622"
             width="744.09448"
             xlink:href="#textext-c47c4078-10"
             x="251.74623"
             y="130.70799"
             id="use5435" />
          <use
             height="1052.3622"
             width="744.09448"
             xlink:href="#textext-c47c4078-11"
             x="254.90089"
             y="130.70799"
             id="use5437" />
        </g>
        <g
           style="fill:#000000;fill-opacity:1"
           id="g5439">
          <use
             height="1052.3622"
             width="744.09448"
             xlink:href="#textext-c47c4078-13"
             x="258.77399"
             y="129.651"
             id="use5441" />
        </g>
        <g
           style="fill:#000000;fill-opacity:1"
           id="g5443">
          <use
             height="1052.3622"
             width="744.09448"
             xlink:href="#textext-c47c4078-1"
             x="267.40799"
             y="129.651"
             id="use5445" />
        </g>
        <g
           style="fill:#000000;fill-opacity:1"
           id="g5447">
          <use
             height="1052.3622"
             width="744.09448"
             xlink:href="#textext-c47c4078-3"
             x="265.00101"
             y="129.651"
             id="use5449" />
        </g>
        <path
           style="fill:none;stroke:#000000;stroke-width:0.398;stroke-linecap:butt;stroke-linejoin:miter;stroke-miterlimit:10;stroke-opacity:1"
           d="m 9.0625e-4,5.625e-4 47.44140575,0"
           transform="matrix(1,0,0,-1,224.628,132.274)"
           id="path5451" />
        <g
           style="fill:#000000;fill-opacity:1"
           id="g5453">
          <use
             height="1052.3622"
             width="744.09448"
             xlink:href="#textext-c47c4078-1"
             x="233.683"
             y="138.2"
             id="use5455" />
        </g>
        <g
           style="fill:#000000;fill-opacity:1"
           id="g5457">
          <use
             height="1052.3622"
             width="744.09448"
             xlink:href="#textext-c47c4078-3"
             x="231.276"
             y="138.2"
             id="use5459" />
        </g>
        <g
           style="fill:#000000;fill-opacity:1"
           id="g5461">
          <use
             height="1052.3622"
             width="744.09448"
             xlink:href="#textext-c47c4078-5"
             x="238.345"
             y="139.258"
             id="use5463" />
        </g>
        <g
           style="fill:#000000;fill-opacity:1"
           id="g5465">
          <use
             height="1052.3622"
             width="744.09448"
             xlink:href="#textext-c47c4078-6"
             x="243.85332"
             y="139.258"
             id="use5467" />
          <use
             height="1052.3622"
             width="744.09448"
             xlink:href="#textext-c47c4078-7"
             x="247.35417"
             y="139.258"
             id="use5469" />
        </g>
        <g
           style="fill:#000000;fill-opacity:1"
           id="g5471">
          <use
             height="1052.3622"
             width="744.09448"
             xlink:href="#textext-c47c4078-8"
             x="250.87247"
             y="139.258"
             id="use5473" />
        </g>
        <g
           style="fill:#000000;fill-opacity:1"
           id="g5475">
          <use
             height="1052.3622"
             width="744.09448"
             xlink:href="#textext-c47c4078-9"
             x="254.53671"
             y="139.258"
             id="use5477" />
          <use
             height="1052.3622"
             width="744.09448"
             xlink:href="#textext-c47c4078-10"
             x="258.39423"
             y="139.258"
             id="use5479" />
        </g>
        <g
           style="fill:#000000;fill-opacity:1"
           id="g5481">
          <use
             height="1052.3622"
             width="744.09448"
             xlink:href="#textext-c47c4078-11"
             x="261.55386"
             y="139.258"
             id="use5483" />
        </g>
      </g>
    </g>
    <g
       id="g5902"
       transform="matrix(3.2791959,0,0,3.2791959,-712.98187,-296.91866)"
       ns0:preamble="/home/balassab/SKV/svn/skv/trunk/doc/LaTeX/bilder_quelle/preamble.tex"
       ns0:text="$1$">
      <defs
         id="defs5904">
        <g
           id="g5906">
          <symbol
             id="textext-a7552405-0"
             overflow="visible"
             style="overflow:visible">
            <path
               id="path5909"
               d=""
               style="stroke:none" />
          </symbol>
          <symbol
             id="textext-a7552405-1"
             overflow="visible"
             style="overflow:visible">
            <path
               id="path5912"
               d="m 2.9375,-6.375 c 0,-0.25 0,-0.265625 -0.234375,-0.265625 C 2.078125,-6 1.203125,-6 0.890625,-6 l 0,0.3125 c 0.203125,0 0.78125,0 1.296875,-0.265625 l 0,5.171875 c 0,0.359375 -0.03125,0.46875 -0.921875,0.46875 l -0.3125,0 0,0.3125 c 0.34375,-0.03125 1.203125,-0.03125 1.609375,-0.03125 0.390625,0 1.265625,0 1.609375,0.03125 l 0,-0.3125 -0.3125,0 c -0.90625,0 -0.921875,-0.109375 -0.921875,-0.46875 l 0,-5.59375 z m 0,0"
               style="stroke:none" />
          </symbol>
        </g>
      </defs>
      <g
         id="textext-a7552405-2">
        <g
           id="g5915"
           style="fill:#000000;fill-opacity:1">
          <use
             id="use5917"
             y="134.765"
             x="223.43201"
             xlink:href="#textext-a7552405-1"
             width="744.09448"
             height="1052.3622" />
        </g>
      </g>
    </g>
  </g>
</svg>
