<?xml version="1.0" encoding="UTF-8" standalone="no"?>
<!-- Creator: CorelDRAW -->

<svg
   xmlns:dc="http://purl.org/dc/elements/1.1/"
   xmlns:cc="http://creativecommons.org/ns#"
   xmlns:rdf="http://www.w3.org/1999/02/22-rdf-syntax-ns#"
   xmlns:svg="http://www.w3.org/2000/svg"
   xmlns="http://www.w3.org/2000/svg"
   xmlns:sodipodi="http://sodipodi.sourceforge.net/DTD/sodipodi-0.dtd"
   xmlns:inkscape="http://www.inkscape.org/namespaces/inkscape"
   xml:space="preserve"
   width="210mm"
   height="297mm"
   style="shape-rendering:geometricPrecision; text-rendering:geometricPrecision; image-rendering:optimizeQuality; fill-rule:evenodd; clip-rule:evenodd"
   viewBox="0 0 210 297"
   id="svg2"
   version="1.1"
   inkscape:version="0.47 r22583"
   sodipodi:docname="Duese_Ueberschall.svg"
   inkscape:export-filename="/home/balassab/SKV/svn/skv/trunk/doc/LaTeX/bilder_pdf/Duese_Ueberschall.png"
   inkscape:export-xdpi="170"
   inkscape:export-ydpi="170"><metadata
   id="metadata32"><rdf:RDF><cc:Work
       rdf:about=""><dc:format>image/svg+xml</dc:format><dc:type
         rdf:resource="http://purl.org/dc/dcmitype/StillImage" /><dc:title></dc:title></cc:Work></rdf:RDF></metadata><sodipodi:namedview
   pagecolor="#ffffff"
   bordercolor="#666666"
   borderopacity="1"
   objecttolerance="10"
   gridtolerance="10"
   guidetolerance="10"
   inkscape:pageopacity="0"
   inkscape:pageshadow="2"
   inkscape:window-width="1280"
   inkscape:window-height="974"
   id="namedview30"
   showgrid="false"
   inkscape:zoom="1.2847176"
   inkscape:cx="300.48382"
   inkscape:cy="254.46731"
   inkscape:window-x="-4"
   inkscape:window-y="-3"
   inkscape:window-maximized="1"
   inkscape:current-layer="svg2" />
 <defs
   id="defs4"><inkscape:perspective
   sodipodi:type="inkscape:persp3d"
   inkscape:vp_x="0 : 526.18109 : 1"
   inkscape:vp_y="0 : 1000 : 0"
   inkscape:vp_z="744.09448 : 526.18109 : 1"
   inkscape:persp3d-origin="372.04724 : 350.78739 : 1"
   id="perspective34" />
  <style
   type="text/css"
   id="style6">
   
    .str0 {stroke:black}
    .fil0 {fill:none}
   
  </style>
 </defs>
 <g
   id="Ebene_x0020_1"
   style="stroke-width:0.19925213;stroke-miterlimit:4;stroke-dasharray:none"
   transform="matrix(2.8328152,0,0,2.8328152,-43.509383,-432.36247)">
  <metadata
   id="CorelCorpID_0Corel-Layer" />
  <path
   class="fil0 str0"
   d="m 17.6607,237.016 c 0,-1.6997 0,-3.3994 0,-5.0991 0,-3.0039 0,-6.0081 0,-9.012"
   id="path10"
   style="fill:none;stroke:#000000;stroke-width:0.19925213;stroke-miterlimit:4;stroke-dasharray:none" />
  <path
   class="fil0 str0"
   d="m 35.2996,237.016 c 0,-1.185 0,-2.3703 0,-3.5553 0,-2.1411 0,-4.2817 0,-6.4227"
   id="path12"
   style="fill:none;stroke:#000000;stroke-width:0.19925213;stroke-miterlimit:4;stroke-dasharray:none" />
  <path
   class="fil0 str0"
   d="m 52.9385,237.016 c 0,-0.8231 0,-1.6464 0,-2.4695 0,-1.5286 0,-3.0575 0,-4.5861"
   id="path14"
   style="fill:none;stroke:#000000;stroke-width:0.19925213;stroke-miterlimit:4;stroke-dasharray:none" />
  <path
   class="fil0 str0"
   d="m 70.5774,237.016 c 0,-1.1575 0,-2.3149 0,-3.4724 0,-2.1686 0,-4.3371 0,-6.5056"
   id="path16"
   style="fill:none;stroke:#000000;stroke-width:0.19925213;stroke-miterlimit:4;stroke-dasharray:none" />
  <path
   class="fil0 str0"
   d="m 88.2163,237.016 c 0,-1.6817 -1e-4,-3.3634 -1e-4,-5.0451 0,-3.0219 0,-6.0441 0,-9.066"
   id="path18"
   style="fill:none;stroke:#000000;stroke-width:0.19925213;stroke-miterlimit:4;stroke-dasharray:none" />
  <path
   class="fil0 str0"
   d="m 17.6607,237.016 c 11.7592,0 23.5186,0 35.2778,0 11.7591,0 23.5186,0 35.2777,0"
   id="path20"
   style="fill:none;stroke:#000000;stroke-width:0.19925213;stroke-miterlimit:4;stroke-dasharray:none" />
  <path
   class="fil0 str0"
   d="m 17.6607,235.381 c 11.756,0.229 23.5162,0.8527 35.2774,0.8672 11.7613,0.0148 23.5236,-0.5796 35.2781,-0.8389"
   id="path22"
   style="fill:none;stroke:#000000;stroke-width:0.19925213;stroke-miterlimit:4;stroke-dasharray:none" />
  <path
   class="fil0 str0"
   d="m 17.6607,232.305 c 11.734,0.6113 23.502,2.4183 35.276,2.4546 11.7743,0.0367 23.555,-1.6972 35.2795,-2.3932"
   id="path24"
   style="fill:none;stroke:#000000;stroke-width:0.19925213;stroke-miterlimit:4;stroke-dasharray:none" />
  <path
   class="fil0 str0"
   d="m 17.6607,228.065 c 11.675,1.0651 23.4664,4.517 35.2735,4.5668 11.8086,0.0501 23.6326,-3.3024 35.282,-4.4941"
   id="path26"
   style="fill:none;stroke:#000000;stroke-width:0.19925213;stroke-miterlimit:4;stroke-dasharray:none" />
  <path
   class="fil0 str0"
   d="m 17.6607,222.905 c 11.5521,1.5315 23.4149,7.0556 35.2778,7.0556 11.8628,0 23.7257,-5.5241 35.2777,-7.0555"
   id="path28"
   style="fill:none;stroke:#000000;stroke-width:0.19925213;stroke-miterlimit:4;stroke-dasharray:none" />
 </g>
</svg>