digraph "ableitung::ersteAbleitung_z_cos_epsilon"
{
  bgcolor="transparent";
  edge [fontname="Helvetica",fontsize="10",labelfontname="Helvetica",labelfontsize="10"];
  node [fontname="Helvetica",fontsize="10",shape=record];
  rankdir="LR";
  Node1 [label="ableitung::ersteAbleitung\l_z_cos_epsilon",height=0.2,width=0.4,color="black", fillcolor="grey75", style="filled" fontcolor="black"];
  Node1 -> Node2 [color="midnightblue",fontsize="10",style="solid",fontname="Helvetica"];
  Node2 [label="ableitung::dr_deta",height=0.2,width=0.4,color="black",URL="$classableitung.html#ac769911f48f39567d678ac5656773c24",tooltip="Berechnet die krummlinige Ableitung  an der Stelle i,j,k. "];
  Node1 -> Node3 [color="midnightblue",fontsize="10",style="solid",fontname="Helvetica"];
  Node3 [label="ableitung::dr_dxi",height=0.2,width=0.4,color="black",URL="$classableitung.html#a592ab263a26b4e23575a981771dce1c7",tooltip="Berechnet die krummlinige Ableitung  an der Stelle i,j,k. "];
  Node1 -> Node4 [color="midnightblue",fontsize="10",style="solid",fontname="Helvetica"];
  Node4 [label="ableitung::dz_deta",height=0.2,width=0.4,color="black",URL="$classableitung.html#ab43d102656d3aa08e3e878400bfb1f5d",tooltip="Berechnet die krummlinige Ableitung  an der Stelle i,j,k. "];
  Node1 -> Node5 [color="midnightblue",fontsize="10",style="solid",fontname="Helvetica"];
  Node5 [label="ableitung::dz_dxi",height=0.2,width=0.4,color="black",URL="$classableitung.html#a70e80d25f5eeeafc8055acd22ac1c983",tooltip="Berechnet die krummlinige Ableitung  an der Stelle i,j,k. "];
}
