digraph "druck::setze_p_tot_rel"
{
  bgcolor="transparent";
  edge [fontname="Helvetica",fontsize="10",labelfontname="Helvetica",labelfontsize="10"];
  node [fontname="Helvetica",fontsize="10",shape=record];
  rankdir="LR";
  Node1 [label="druck::setze_p_tot_rel",height=0.2,width=0.4,color="black", fillcolor="grey75", style="filled" fontcolor="black"];
  Node1 -> Node2 [color="midnightblue",fontsize="10",style="solid",fontname="Helvetica"];
  Node2 [label="druck::berechne_p_tot_rel",height=0.2,width=0.4,color="black",URL="$classdruck.html#a3bf8762c2359f80d452b807c367d343b",tooltip="Berechnung des relativen Totaldrucks. "];
}
