digraph "CGNSformat::readCGNS"
{
  bgcolor="transparent";
  edge [fontname="Helvetica",fontsize="10",labelfontname="Helvetica",labelfontsize="10"];
  node [fontname="Helvetica",fontsize="10",shape=record];
  rankdir="LR";
  Node1 [label="CGNSformat::readCGNS",height=0.2,width=0.4,color="black", fillcolor="grey75", style="filled" fontcolor="black"];
  Node1 -> Node2 [color="midnightblue",fontsize="10",style="solid",fontname="Helvetica"];
  Node2 [label="daten::initialisiere",height=0.2,width=0.4,color="black",URL="$classdaten.html#a99e2c226a56cc79f933122b1331915e2",tooltip="Initialisierung der übrigen benötigten Vektor-Container. "];
  Node1 -> Node3 [color="midnightblue",fontsize="10",style="solid",fontname="Helvetica"];
  Node3 [label="daten::initialisiere\l_anzahlQuasiOrthogonale",height=0.2,width=0.4,color="black",URL="$classdaten.html#a5e174456c4fe1b45c3b0b175679bc170",tooltip="Initialisierung des Containers &quot;Anzahl der Quasiorthogonalen&quot;. "];
}
