digraph "druck::berechne_p"
{
  bgcolor="transparent";
  edge [fontname="Helvetica",fontsize="10",labelfontname="Helvetica",labelfontsize="10"];
  node [fontname="Helvetica",fontsize="10",shape=record];
  rankdir="LR";
  Node1 [label="druck::berechne_p",height=0.2,width=0.4,color="black", fillcolor="grey75", style="filled" fontcolor="black"];
  Node1 -> Node2 [color="midnightblue",fontsize="10",style="solid",fontname="Helvetica"];
  Node2 [label="druck::berechne_p_tot",height=0.2,width=0.4,color="black",URL="$classdruck.html#a5dec577221b1eba349bd476ea8cd33a1",tooltip="Berechnung des Totaldrucks. "];
}
