digraph "epsilon::berechne_kruemmungsRadius"
{
  bgcolor="transparent";
  edge [fontname="Helvetica",fontsize="10",labelfontname="Helvetica",labelfontsize="10"];
  node [fontname="Helvetica",fontsize="10",shape=record];
  rankdir="LR";
  Node1 [label="epsilon::berechne_kruemmungs\lRadius",height=0.2,width=0.4,color="black", fillcolor="grey75", style="filled" fontcolor="black"];
  Node1 -> Node2 [color="midnightblue",fontsize="10",style="solid",fontname="Helvetica"];
  Node2 [label="ableitung::ersteAbleitung\l_epsilon",height=0.2,width=0.4,color="black",URL="$classableitung.html#a370d7ce4966a31250f858fffcd7f42a9",tooltip="Ableitung des Winkels . "];
}
