digraph "geschwindigkeit_denton::initialisiere_w_m"
{
  bgcolor="transparent";
  edge [fontname="Helvetica",fontsize="10",labelfontname="Helvetica",labelfontsize="10"];
  node [fontname="Helvetica",fontsize="10",shape=record];
  rankdir="LR";
  Node1 [label="geschwindigkeit_denton\l::initialisiere_w_m",height=0.2,width=0.4,color="black", fillcolor="grey75", style="filled" fontcolor="black"];
  Node1 -> Node2 [color="midnightblue",fontsize="10",style="solid",fontname="Helvetica"];
  Node2 [label="geschwindigkeit_denton\l::wmausSchluckziffer",height=0.2,width=0.4,color="black",URL="$classgeschwindigkeit__denton.html#adfb6895415e20628346ecd7e261105b3",tooltip="Initialisieren der Meridiangeschwindigkeit aus der Schluckziffer. "];
}
