digraph "geometrie::initialisiereGeometrie_nurbsGitterSL"
{
  bgcolor="transparent";
  edge [fontname="Helvetica",fontsize="10",labelfontname="Helvetica",labelfontsize="10"];
  node [fontname="Helvetica",fontsize="10",shape=record];
  rankdir="LR";
  Node1 [label="geometrie::initialisiere\lGeometrie_nurbsGitterSL",height=0.2,width=0.4,color="black", fillcolor="grey75", style="filled" fontcolor="black"];
  Node1 -> Node2 [color="midnightblue",fontsize="10",style="solid",fontname="Helvetica"];
  Node2 [label="geometrie::aktualisiere\l_nurbsCosEpsilon",height=0.2,width=0.4,color="black",URL="$classgeometrie.html#acc57638e18a97c799c5d9ccfbd0e605b",tooltip="Bestimmung einer Nurbskurve mit den Werten von  entlang einer Stromlinie. "];
  Node1 -> Node3 [color="midnightblue",fontsize="10",style="solid",fontname="Helvetica"];
  Node3 [label="geometrie::aktualisiere\l_nurbsCotBetaQO",height=0.2,width=0.4,color="black",URL="$classgeometrie.html#aeb363c4aa57b18a5d8b48e2e99930c0c",tooltip="Bestimmung einer Nurbskurve mit den Werten von  entlang einer Quasiorthogonalen. "];
  Node1 -> Node4 [color="midnightblue",fontsize="10",style="solid",fontname="Helvetica"];
  Node4 [label="geometrie::aktualisiere\l_nurbsCotBetaSL",height=0.2,width=0.4,color="black",URL="$classgeometrie.html#a8e022c07a336b642cac780a2a3dc4343",tooltip="Bestimmung einer Nurbskurve mit den Werten von  entlang einer Stromlinie. "];
  Node1 -> Node5 [color="midnightblue",fontsize="10",style="solid",fontname="Helvetica"];
  Node5 [label="geometrie::aktualisiere\l_nurbsEntropieSL",height=0.2,width=0.4,color="black",URL="$classgeometrie.html#ae901e812ec381a0c18e6b6f90751e6dc",tooltip="Bestimmung einer Nurbskurve mit den Werten der Entropie entlang einer Stromlinie. ..."];
  Node1 -> Node6 [color="midnightblue",fontsize="10",style="solid",fontname="Helvetica"];
  Node6 [label="geometrie::aktualisiere\l_nurbsSigmaSL",height=0.2,width=0.4,color="black",URL="$classgeometrie.html#a1bad13575025805b4de281287137d81f",tooltip="Bestimmung einer Nurbskurve mit den Werten der Schaufelversperrung entlang einer Stromlinie. "];
  Node1 -> Node7 [color="midnightblue",fontsize="10",style="solid",fontname="Helvetica"];
  Node7 [label="geometrie::aktualisiere\l_nurbsSinEpsilon",height=0.2,width=0.4,color="black",URL="$classgeometrie.html#a1f4bfb621ede122cdc292087abd80988",tooltip="Bestimmung einer Nurbskurve mit den Werten von  entlang einer Quasiorthogonalen. "];
}
