digraph "Grafische Darstellung der Klassenhierarchie"
{
  bgcolor="transparent";
  edge [fontname="Helvetica",fontsize="10",labelfontname="Helvetica",labelfontsize="10"];
  node [fontname="Helvetica",fontsize="10",shape=record];
  rankdir="LR";
  Node1 [label="wirkungsgrad",height=0.2,width=0.4,color="black",URL="$classwirkungsgrad.html",tooltip="Klasse für die Berechnung der Wirkungsgrade. "];
}
