digraph "Grafische Darstellung der Klassenhierarchie"
{
  bgcolor="transparent";
  edge [fontname="Helvetica",fontsize="10",labelfontname="Helvetica",labelfontsize="10"];
  node [fontname="Helvetica",fontsize="10",shape=record];
  rankdir="LR";
  Node1 [label="kennfeld_manager",height=0.2,width=0.4,color="black",URL="$classkennfeld__manager.html",tooltip="Kennfeldmanagerklasse. "];
}
